waveform.vcd
$date
	Sun Aug 17 21:27:52 2025
$end
$version
	Icarus Verilog
$end
$timescale
	1s
$end
$scope module riscVTop_tb $end
$scope module uut $end
$var wire 1 ! clk $end
$var wire 1 " reset $end
$var wire 1 # zero_top $end
$var wire 32 $ write_back_top [31:0] $end
$var wire 32 % sum_out_top [31:0] $end
$var wire 1 & sel2_top $end
$var wire 1 ' reg_write_top $end
$var wire 32 ( rd2_top [31:0] $end
$var wire 32 ) rd1_top [31:0] $end
$var wire 32 * pc_top [31:0] $end
$var wire 32 + pc_in_top [31:0] $end
$var wire 32 , next_pc_top [31:0] $end
$var wire 32 - mux1_top [31:0] $end
$var wire 1 . mem_write_top $end
$var wire 1 / mem_to_reg_top $end
$var wire 1 0 mem_read_top $end
$var wire 32 1 mem_data_top [31:0] $end
$var wire 32 2 instruction_top [31:0] $end
$var wire 32 3 immediate_ext_top [31:0] $end
$var wire 4 4 control_top [3:0] $end
$var wire 1 5 branch_top $end
$var wire 1 6 alu_src_top $end
$var wire 2 7 alu_op_top [1:0] $end
$var wire 32 8 addr_top [31:0] $end
$scope module adder_inst $end
$var wire 32 9 sum_out [31:0] $end
$var wire 32 : in2 [31:0] $end
$var wire 32 ; in1 [31:0] $end
$upscope $end
$scope module adder_mux $end
$var wire 32 < b2 [31:0] $end
$var wire 1 & sel2 $end
$var wire 32 = mux2_out [31:0] $end
$var wire 32 > a2 [31:0] $end
$upscope $end
$scope module aluControl_inst $end
$var wire 3 ? funct3 [2:0] $end
$var wire 1 @ funct7 $end
$var wire 2 A alu_op [1:0] $end
$var reg 4 B control_out [3:0] $end
$upscope $end
$scope module alu_inst $end
$var wire 4 C control_in [3:0] $end
$var wire 32 D b [31:0] $end
$var wire 32 E a [31:0] $end
$var reg 32 F alu_result [31:0] $end
$var reg 1 # zero $end
$upscope $end
$scope module alu_mux $end
$var wire 1 6 sel1 $end
$var wire 32 G mux1_out [31:0] $end
$var wire 32 H b1 [31:0] $end
$var wire 32 I a1 [31:0] $end
$upscope $end
$scope module andGate_inst $end
$var wire 1 & and_out $end
$var wire 1 # zero $end
$var wire 1 5 branch $end
$upscope $end
$scope module controlUnit_inst $end
$var wire 7 J instruction [6:0] $end
$var reg 2 K alu_op [1:0] $end
$var reg 1 6 alu_src $end
$var reg 1 5 branch $end
$var reg 1 0 mem_read $end
$var reg 1 / mem_to_reg $end
$var reg 1 . mem_write $end
$var reg 1 ' reg_write $end
$upscope $end
$scope module dataMemory_inst $end
$var wire 1 ! clk $end
$var wire 1 0 mem_read $end
$var wire 1 . mem_write $end
$var wire 32 L read_addr [31:0] $end
$var wire 1 " reset $end
$var wire 32 M write_data [31:0] $end
$var wire 32 N mem_data_out [31:0] $end
$var integer 32 O k [31:0] $end
$upscope $end
$scope module data_memory_mux $end
$var wire 32 P a3 [31:0] $end
$var wire 32 Q b3 [31:0] $end
$var wire 1 / sel3 $end
$var wire 32 R mux3_out [31:0] $end
$upscope $end
$scope module immediateGen_inst $end
$var wire 7 S opcode [6:0] $end
$var wire 32 T instruction [31:0] $end
$var reg 32 U immediate_ext [31:0] $end
$upscope $end
$scope module instructionMemory_inst $end
$var wire 1 ! clk $end
$var wire 1 " reset $end
$var wire 32 V read_addr [31:0] $end
$var reg 32 W instruction_out [31:0] $end
$upscope $end
$scope module pcAdder_inst $end
$var wire 32 X next_pc [31:0] $end
$var wire 32 Y from_pc [31:0] $end
$upscope $end
$scope module programCounter_inst $end
$var wire 1 ! clk $end
$var wire 32 Z pc_in [31:0] $end
$var wire 1 " reset $end
$var reg 32 [ pc_out [31:0] $end
$upscope $end
$scope module registerFile_inst $end
$var wire 1 ! clk $end
$var wire 5 \ rd [4:0] $end
$var wire 32 ] read_data1 [31:0] $end
$var wire 32 ^ read_data2 [31:0] $end
$var wire 1 ' reg_write $end
$var wire 1 " reset $end
$var wire 5 _ rs1 [4:0] $end
$var wire 5 ` rs2 [4:0] $end
$var wire 32 a write_data [31:0] $end
$var integer 32 b k [31:0] $end
$upscope $end
$upscope $end
$upscope $end
$enddefinitions $end
$comment Show the parameter values. $end
$dumpall
$end
#0
$dumpvars
b100000 b
b0 a
b0 `
b0 _
b0 ^
b0 ]
b0 \
b0 [
b100 Z
b0 Y
b100 X
b0 W
b0 V
b0 U
b0 T
b0 S
b0 R
b0 Q
b0 P
b1000000 O
b0 N
b0 M
b0 L
b0 K
b0 J
b0 I
b0 H
b0 G
b0 F
b0 E
b0 D
b10 C
b10 B
b0 A
0@
b0 ?
b100 >
b100 =
b0 <
b0 ;
b0 :
b0 9
b0 8
b0 7
06
05
b10 4
b0 3
b0 2
b0 1
00
0/
0.
b0 -
b100 ,
b100 +
b0 *
b0 )
b0 (
0'
0&
b0 %
b0 $
0#
1"
0!
$end
#5
b1000000 O
b100000 b
1!
#10
0!
0"
#15
1'
b10 7
b10 A
b10 K
b110011 J
b110011 S
b1101 \
b11001 `
b10000 _
b1000 +
b1000 =
b1000 Z
b1100110000000011010110011 2
b1100110000000011010110011 T
b1100110000000011010110011 W
b1000 ,
b1000 >
b1000 X
b100 %
b100 9
b100 <
b100 *
b100 ;
b100 V
b100 Y
b100 [
1!
#20
0!
#25
1#
b110 4
b110 B
b110 C
1@
b101 \
b11 `
b1000 _
b1100 +
b1100 =
b1100 Z
b1000000001101000000001010110011 2
b1000000001101000000001010110011 T
b1000000001101000000001010110011 W
b1100 ,
b1100 >
b1100 X
b1000 %
b1000 9
b1000 <
b1000 *
b1000 ;
b1000 V
b1000 Y
b1000 [
1!
#30
0!
#35
0#
b0 4
b0 B
b0 C
b111 ?
0@
b1 \
b10 _
b10000 +
b10000 =
b10000 Z
b1100010111000010110011 2
b1100010111000010110011 T
b1100010111000010110011 W
b10000 ,
b10000 >
b10000 X
b1100 %
b1100 9
b1100 <
b1100 *
b1100 ;
b1100 V
b1100 Y
b1100 [
1!
#40
0!
#45
b1 4
b1 B
b1 C
b110 ?
b100 \
b101 `
b11 _
b10100 +
b10100 =
b10100 Z
b10100011110001000110011 2
b10100011110001000110011 T
b10100011110001000110011 W
b10100 ,
b10100 >
b10100 X
b10000 %
b10000 9
b10000 <
b10000 *
b10000 ;
b10000 V
b10000 Y
b10000 [
1!
#50
0!
#55
b10 4
b10 B
b10 C
0'
b0 7
b0 A
b0 K
b0 ?
b10011 J
b10011 S
b10110 \
b11 `
b10101 _
b11000 +
b11000 =
b11000 Z
b1110101000101100010011 2
b1110101000101100010011 T
b1110101000101100010011 W
b11000 ,
b11000 >
b11000 X
b10100 %
b10100 9
b10100 <
b10100 *
b10100 ;
b10100 V
b10100 Y
b10100 [
1!
#60
0!
#65
b0 4
b0 B
b0 C
b110 ?
b1001 \
b1 `
b1000 _
b11100 +
b11100 =
b11100 Z
b101000110010010010011 2
b101000110010010010011 T
b101000110010010010011 W
b11100 ,
b11100 >
b11100 X
b11000 %
b11000 9
b11000 <
b11000 *
b11000 ;
b11000 V
b11000 Y
b11000 [
1!
#70
0!
#75
b1111 -
b1111 D
b1111 G
16
1/
1'
10
b1111 3
b1111 :
b1111 H
b1111 U
b10 ?
b11 J
b11 S
b1000 \
b1111 `
b101 _
b100000 +
b100000 =
b100000 Z
b111100101010010000000011 2
b111100101010010000000011 T
b111100101010010000000011 W
b100000 ,
b100000 >
b100000 X
b101011 %
b101011 9
b101011 <
b11100 *
b11100 ;
b11100 V
b11100 Y
b11100 [
1!
#80
0!
#85
b11 -
b11 D
b11 G
b11 3
b11 :
b11 H
b11 U
b1001 \
b11 `
b11 _
b100100 +
b100100 =
b100100 Z
b1100011010010010000011 2
b1100011010010010000011 T
b1100011010010010000011 W
b100100 ,
b100100 >
b100100 X
b100011 %
b100011 9
b100011 <
b100000 *
b100000 ;
b100000 V
b100000 Y
b100000 [
1!
#90
0!
#95
b1100 -
b1100 D
b1100 G
0/
0'
00
1.
b1100 3
b1100 :
b1100 H
b1100 U
b100011 J
b100011 S
b1100 \
b1111 `
b101 _
b101000 +
b101000 =
b101000 Z
b111100101010011000100011 2
b111100101010011000100011 T
b111100101010011000100011 W
b101000 ,
b101000 >
b101000 X
b110000 %
b110000 9
b110000 <
b100100 *
b100100 ;
b100100 V
b100100 Y
b100100 [
1!
#100
0!
#105
b1010 -
b1010 D
b1010 G
b1010 3
b1010 :
b1010 H
b1010 U
b1010 \
b1110 `
b110 _
b101100 +
b101100 =
b101100 Z
b111000110010010100100011 2
b111000110010010100100011 T
b111000110010010100100011 W
b101100 ,
b101100 >
b101100 X
b110010 %
b110010 9
b110010 <
b101000 *
b101000 ;
b101000 V
b101000 Y
b101000 [
1!
#110
0!
#115
1&
1#
b0 8
b0 F
b0 L
b0 P
b0 -
b0 D
b0 G
b110 4
b110 B
b110 C
06
0.
15
b1 7
b1 A
b1 K
b1100 3
b1100 :
b1100 H
b1100 U
b0 ?
b1100011 J
b1100011 S
b1100 \
b1001 `
b1001 _
b111000 +
b111000 =
b111000 Z
b100101001000011001100011 2
b100101001000011001100011 T
b100101001000011001100011 W
b110000 ,
b110000 >
b110000 X
b111000 %
b111000 9
b111000 <
b101100 *
b101100 ;
b101100 V
b101100 Y
b101100 [
1!
#120
0!
#125
bx $
bx R
bx a
0&
b0 4
b0 B
b0 C
05
b0 7
b0 A
b0 K
bx 8
bx F
bx L
bx P
0#
b0 3
b0 :
b0 H
b0 U
bx -
bx D
bx G
bx ?
x@
bx J
bx S
bx \
bx (
bx I
bx M
bx ^
bx `
bx )
bx E
bx ]
bx _
b111100 +
b111100 =
b111100 Z
bx 2
bx T
bx W
b111100 ,
b111100 >
b111100 X
b111000 %
b111000 9
b111000 <
b111000 *
b111000 ;
b111000 V
b111000 Y
b111000 [
1!
#130
0!
#135
b1000000 +
b1000000 =
b1000000 Z
b1000000 ,
b1000000 >
b1000000 X
b111100 %
b111100 9
b111100 <
b111100 *
b111100 ;
b111100 V
b111100 Y
b111100 [
1!
#140
0!
#145
b1000100 +
b1000100 =
b1000100 Z
b1000100 ,
b1000100 >
b1000100 X
b1000000 %
b1000000 9
b1000000 <
b1000000 *
b1000000 ;
b1000000 V
b1000000 Y
b1000000 [
1!
#150
0!
#155
b1001000 +
b1001000 =
b1001000 Z
b1001000 ,
b1001000 >
b1001000 X
b1000100 %
b1000100 9
b1000100 <
b1000100 *
b1000100 ;
b1000100 V
b1000100 Y
b1000100 [
1!
#160
0!
#165
b1001100 +
b1001100 =
b1001100 Z
b1001100 ,
b1001100 >
b1001100 X
b1001000 %
b1001000 9
b1001000 <
b1001000 *
b1001000 ;
b1001000 V
b1001000 Y
b1001000 [
1!
#170
0!
#175
b1010000 +
b1010000 =
b1010000 Z
b1010000 ,
b1010000 >
b1010000 X
b1001100 %
b1001100 9
b1001100 <
b1001100 *
b1001100 ;
b1001100 V
b1001100 Y
b1001100 [
1!
#180
0!
#185
b1010100 +
b1010100 =
b1010100 Z
b1010100 ,
b1010100 >
b1010100 X
b1010000 %
b1010000 9
b1010000 <
b1010000 *
b1010000 ;
b1010000 V
b1010000 Y
b1010000 [
1!
#190
0!
#195
b1011000 +
b1011000 =
b1011000 Z
b1011000 ,
b1011000 >
b1011000 X
b1010100 %
b1010100 9
b1010100 <
b1010100 *
b1010100 ;
b1010100 V
b1010100 Y
b1010100 [
1!
#200
0!
#205
b1011100 +
b1011100 =
b1011100 Z
b1011100 ,
b1011100 >
b1011100 X
b1011000 %
b1011000 9
b1011000 <
b1011000 *
b1011000 ;
b1011000 V
b1011000 Y
b1011000 [
1!
#210
0!
#215
b1100000 +
b1100000 =
b1100000 Z
b1100000 ,
b1100000 >
b1100000 X
b1011100 %
b1011100 9
b1011100 <
b1011100 *
b1011100 ;
b1011100 V
b1011100 Y
b1011100 [
1!
#220
0!
#225
b1100100 +
b1100100 =
b1100100 Z
b1100100 ,
b1100100 >
b1100100 X
b1100000 %
b1100000 9
b1100000 <
b1100000 *
b1100000 ;
b1100000 V
b1100000 Y
b1100000 [
1!
#230
0!
#235
b1101000 +
b1101000 =
b1101000 Z
b1101000 ,
b1101000 >
b1101000 X
b1100100 %
b1100100 9
b1100100 <
b1100100 *
b1100100 ;
b1100100 V
b1100100 Y
b1100100 [
1!
#240
0!
#245
b1101100 +
b1101100 =
b1101100 Z
b1101100 ,
b1101100 >
b1101100 X
b1101000 %
b1101000 9
b1101000 <
b1101000 *
b1101000 ;
b1101000 V
b1101000 Y
b1101000 [
1!
#250
0!
#255
b1110000 +
b1110000 =
b1110000 Z
b1110000 ,
b1110000 >
b1110000 X
b1101100 %
b1101100 9
b1101100 <
b1101100 *
b1101100 ;
b1101100 V
b1101100 Y
b1101100 [
1!
#260
0!
#265
b1110100 +
b1110100 =
b1110100 Z
b1110100 ,
b1110100 >
b1110100 X
b1110000 %
b1110000 9
b1110000 <
b1110000 *
b1110000 ;
b1110000 V
b1110000 Y
b1110000 [
1!
#270
0!
#275
b1111000 +
b1111000 =
b1111000 Z
b1111000 ,
b1111000 >
b1111000 X
b1110100 %
b1110100 9
b1110100 <
b1110100 *
b1110100 ;
b1110100 V
b1110100 Y
b1110100 [
1!
#280
0!
#285
b1111100 +
b1111100 =
b1111100 Z
b1111100 ,
b1111100 >
b1111100 X
b1111000 %
b1111000 9
b1111000 <
b1111000 *
b1111000 ;
b1111000 V
b1111000 Y
b1111000 [
1!
#290
0!
#295
b10000000 +
b10000000 =
b10000000 Z
b10000000 ,
b10000000 >
b10000000 X
b1111100 %
b1111100 9
b1111100 <
b1111100 *
b1111100 ;
b1111100 V
b1111100 Y
b1111100 [
1!
#300
0!
#305
b10000100 +
b10000100 =
b10000100 Z
b10000100 ,
b10000100 >
b10000100 X
b10000000 %
b10000000 9
b10000000 <
b10000000 *
b10000000 ;
b10000000 V
b10000000 Y
b10000000 [
1!
#310
0!
#315
b10001000 +
b10001000 =
b10001000 Z
b10001000 ,
b10001000 >
b10001000 X
b10000100 %
b10000100 9
b10000100 <
b10000100 *
b10000100 ;
b10000100 V
b10000100 Y
b10000100 [
1!
#320
0!
#325
b10001100 +
b10001100 =
b10001100 Z
b10001100 ,
b10001100 >
b10001100 X
b10001000 %
b10001000 9
b10001000 <
b10001000 *
b10001000 ;
b10001000 V
b10001000 Y
b10001000 [
1!
#330
0!
#335
b10010000 +
b10010000 =
b10010000 Z
b10010000 ,
b10010000 >
b10010000 X
b10001100 %
b10001100 9
b10001100 <
b10001100 *
b10001100 ;
b10001100 V
b10001100 Y
b10001100 [
1!
#340
0!
#345
b10010100 +
b10010100 =
b10010100 Z
b10010100 ,
b10010100 >
b10010100 X
b10010000 %
b10010000 9
b10010000 <
b10010000 *
b10010000 ;
b10010000 V
b10010000 Y
b10010000 [
1!
#350
0!
#355
b10011000 +
b10011000 =
b10011000 Z
b10011000 ,
b10011000 >
b10011000 X
b10010100 %
b10010100 9
b10010100 <
b10010100 *
b10010100 ;
b10010100 V
b10010100 Y
b10010100 [
1!
#360
0!
#365
b10011100 +
b10011100 =
b10011100 Z
b10011100 ,
b10011100 >
b10011100 X
b10011000 %
b10011000 9
b10011000 <
b10011000 *
b10011000 ;
b10011000 V
b10011000 Y
b10011000 [
1!
#370
0!
#375
b10100000 +
b10100000 =
b10100000 Z
b10100000 ,
b10100000 >
b10100000 X
b10011100 %
b10011100 9
b10011100 <
b10011100 *
b10011100 ;
b10011100 V
b10011100 Y
b10011100 [
1!
#380
0!
#385
b10100100 +
b10100100 =
b10100100 Z
b10100100 ,
b10100100 >
b10100100 X
b10100000 %
b10100000 9
b10100000 <
b10100000 *
b10100000 ;
b10100000 V
b10100000 Y
b10100000 [
1!
#390
0!
#395
b10101000 +
b10101000 =
b10101000 Z
b10101000 ,
b10101000 >
b10101000 X
b10100100 %
b10100100 9
b10100100 <
b10100100 *
b10100100 ;
b10100100 V
b10100100 Y
b10100100 [
1!
#400
0!
#405
b10101100 +
b10101100 =
b10101100 Z
b10101100 ,
b10101100 >
b10101100 X
b10101000 %
b10101000 9
b10101000 <
b10101000 *
b10101000 ;
b10101000 V
b10101000 Y
b10101000 [
1!
